/* XPM */
static char * close_pressed_xpm[] = {
"20 30 71 1",
" 	c None",
".	c #B53CB5",
"+	c #B43BB4",
"@	c #B33AB3",
"#	c #B239B2",
"$	c #B138B1",
"%	c #B037B0",
"&	c #AF36AF",
"*	c #AE35AE",
"=	c #AD34AD",
"-	c #B032A3",
";	c #C12D6E",
">	c #CD294B",
",	c #D3273A",
"'	c #CD2A4C",
")	c #C12D6F",
"!	c #AC33AC",
"~	c #B92F84",
"{	c #D2273B",
"]	c #D52735",
"^	c #D42735",
"/	c #AB32AB",
"(	c #AE30A1",
"_	c #CF2634",
":	c #D22734",
"<	c #AE30A0",
"[	c #AA31AA",
"}	c #C02B6C",
"|	c #D02634",
"1	c #72151C",
"2	c #7D171F",
"3	c #CC2533",
"4	c #C02B6E",
"5	c #A930A9",
"6	c #CC284A",
"7	c #6A131A",
"8	c #7C171F",
"9	c #CC294B",
"0	c #A82FA8",
"a	c #7B161F",
"b	c #CB2533",
"c	c #D2273A",
"d	c #A82EA8",
"e	c #CA2532",
"f	c #A72DA7",
"g	c #A62CA6",
"h	c #BD296B",
"i	c #BD296C",
"j	c #A52BA5",
"k	c #A82A9B",
"l	c #A92A9C",
"m	c #A42AA4",
"n	c #B4297F",
"o	c #B32980",
"p	c #A329A3",
"q	c #B3287E",
"r	c #B2287F",
"s	c #A228A2",
"t	c #A62798",
"u	c #BC276A",
"v	c #CB274A",
"w	c #BB286A",
"x	c #A62799",
"y	c #A127A1",
"z	c #A026A0",
"A	c #9F259F",
"B	c #9E249E",
"C	c #9D239D",
"D	c #9C229C",
"E	c #9B219B",
"F	c #9A209A",
"....................",
"++++++++++++++++++++",
"@@@@@@@@@@@@@@@@@@@@",
"####################",
"$$$$$$$$$$$$$$$$$$$$",
"%%%%%%%%%%%%%%%%%%%%",
"&&&&&&&&&&&&&&&&&&&&",
"********************",
"======-;>,,')-======",
"!!!!!~{]]]]]]{~!!!!!",
"!!!!~^]]]]]]]]^~!!!!",
"///({]]_:]]:_]]{<///",
"[[[}]]|123321|]]4[[[",
"5556]]:278872:]]9555",
"000{]]]3277ab]]]c000",
"dddc]]]3277ae]]]{ddd",
"fff6]]:278872:]]6fff",
"gggh]]|123321|]]iggg",
"jjjkc]]|:]]:|]]{ljjj",
"mmmmn^]]]]]]]]^ommmm",
"pppppq{]]]]]]{rppppp",
"sssssstuv{{vwxssssss",
"yyyyyyyyyyyyyyyyyyyy",
"zzzzzzzzzzzzzzzzzzzz",
"AAAAAAAAAAAAAAAAAAAA",
"BBBBBBBBBBBBBBBBBBBB",
"CCCCCCCCCCCCCCCCCCCC",
"DDDDDDDDDDDDDDDDDDDD",
"EEEEEEEEEEEEEEEEEEEE",
"FFFFFFFFFFFFFFFFFFFF"};
