/* XPM */
static char * maximize_prelight_xpm[] = {
"20 30 77 1",
" 	c None",
".	c #B53CB5",
"+	c #B43BB4",
"@	c #B33AB3",
"#	c #B239B2",
"$	c #B138B1",
"%	c #B037B0",
"&	c #AF36AF",
"*	c #AE35AE",
"=	c #AD34AD",
"-	c #A040A1",
";	c #5B8062",
">	c #31BB3D",
",	c #27D034",
"'	c #27D033",
")	c #31BB3E",
"!	c #5D8061",
"~	c #AC33AC",
"{	c #78627C",
"]	c #28CF34",
"^	c #36E746",
"/	c #39EA49",
"(	c #27CF34",
"_	c #78637C",
":	c #2CDB3A",
"<	c #2BDB3A",
"[	c #AB32AB",
"}	c #9E3E9F",
"|	c #28CE35",
"1	c #9E3D9E",
"2	c #AA31AA",
"3	c #5A7F60",
"4	c #34D643",
"5	c #1F7F28",
"6	c #1C7524",
"7	c #269D31",
"8	c #5C7E61",
"9	c #A930A9",
"0	c #30BB3D",
"a	c #32B93D",
"b	c #A82FA8",
"c	c #28CF35",
"d	c #34D542",
"e	c #35D843",
"f	c #1F8028",
"g	c #A82EA8",
"h	c #A72DA7",
"i	c #32B83C",
"j	c #A62CA6",
"k	c #597C5E",
"l	c #5B7B60",
"m	c #A52BA5",
"n	c #983899",
"o	c #28CD35",
"p	c #99369A",
"q	c #A42AA4",
"r	c #735D77",
"s	c #2BDB39",
"t	c #745B78",
"u	c #A329A3",
"v	c #725C76",
"w	c #27CE35",
"x	c #735A78",
"y	c #A228A2",
"z	c #963496",
"A	c #58795D",
"B	c #31B83D",
"C	c #59795E",
"D	c #963397",
"E	c #A127A1",
"F	c #A026A0",
"G	c #9F259F",
"H	c #9E249E",
"I	c #9D239D",
"J	c #9C229C",
"K	c #9B219B",
"L	c #9A209A",
"....................",
"++++++++++++++++++++",
"@@@@@@@@@@@@@@@@@@@@",
"####################",
"$$$$$$$$$$$$$$$$$$$$",
"%%%%%%%%%%%%%%%%%%%%",
"&&&&&&&&&&&&&&&&&&&&",
"********************",
"======-;>,')!-======",
"~~~~~{]^////^(_~~~~~",
"~~~~{:////////<_~~~~",
"[[[}]//////////|1[[[",
"2223^///45667//^8222",
"9990///4/4566///a999",
"bbbc///5d/ef6///(bbb",
"ggg]///65d/ef///|ggg",
"hhh>///6654/4///ihhh",
"jjjk^//76654///^ljjj",
"mmmn(//////////opmmm",
"qqqqr<////////stqqqq",
"uuuuuvw^////^oxuuuuu",
"yyyyyyzAB((BCDyyyyyy",
"EEEEEEEEEEEEEEEEEEEE",
"FFFFFFFFFFFFFFFFFFFF",
"GGGGGGGGGGGGGGGGGGGG",
"HHHHHHHHHHHHHHHHHHHH",
"IIIIIIIIIIIIIIIIIIII",
"JJJJJJJJJJJJJJJJJJJJ",
"KKKKKKKKKKKKKKKKKKKK",
"LLLLLLLLLLLLLLLLLLLL"};
