/* XPM */
static char * maximize_inactive_xpm[] = {
"20 30 22 1",
" 	c None",
".	c #6A5ACD",
"+	c #7467CB",
"@	c #9C97C3",
"#	c #B7B6C1",
"$	c #BFBEC0",
"%	c #C0BFC1",
"&	c #B6B5C0",
"*	c #9D98C4",
"=	c #8C85C7",
"-	c #BEBEC0",
";	c #C7C7C7",
">	c #C8C8C8",
",	c #BFBFC1",
"'	c #8B84C7",
")	c #C3C3C3",
"!	c #7366CB",
"~	c #9C98C4",
"{	c #B6B5C1",
"]	c #9C97C4",
"^	c #7467CC",
"/	c #C2C2C2",
"....................",
"....................",
"....................",
"....................",
"....................",
"....................",
"....................",
"....................",
"......+@#$%&*+......",
".....=-;>>>>;,'.....",
"....=)>>>>>>>>)'....",
"...+->>>>>>>>>>,!...",
"...@;>>>>>>>>>>;~...",
"...#>>>>>>>>>>>>{...",
"...->>>>>>>>>>>>-...",
"...->>>>>>>>>>>>,...",
"...&>>>>>>>>>>>>{...",
"...*;>>>>>>>>>>;]...",
"...+,>>>>>>>>>>,^...",
"....')>>>>>>>>/'....",
".....',;>>>>;,'.....",
"......!~{,,{]^......",
"....................",
"....................",
"....................",
"....................",
"....................",
"....................",
"....................",
"...................."};
