/* XPM */
static char * close_inactive_xpm[] = {
"20 30 21 1",
" 	c None",
".	c #4B0082",
"+	c #5C3A88",
"@	c #948CA3",
"#	c #B5B3B9",
"$	c #BEBEBF",
"%	c #BFBFC0",
"&	c #B4B2B7",
"*	c #958DA4",
"=	c #807298",
"-	c #C7C7C7",
";	c #C8C8C8",
">	c #7F7198",
",	c #C3C3C3",
"'	c #BFBEBF",
")	c #5A3787",
"!	c #948CA4",
"~	c #B4B3B8",
"{	c #5B3988",
"]	c #C2C2C2",
"^	c #7E7098",
"....................",
"....................",
"....................",
"....................",
"....................",
"....................",
"....................",
"....................",
"......+@#$%&*+......",
".....=$-;;;;-%>.....",
"....=,;;;;;;;;,>....",
"...+$;;;;;;;;;;')...",
"...@-;;;;;;;;;;-!...",
"...#;;;;;;;;;;;;~...",
"...$;;;;;;;;;;;;$...",
"...$;;;;;;;;;;;;'...",
"...&;;;;;;;;;;;;~...",
"...*-;;;;;;;;;;-!...",
"...+%;;;;;;;;;;${...",
"....>,;;;;;;;;]^....",
".....>'-;;;;-$^.....",
"......)!~%%~!{......",
"....................",
"....................",
"....................",
"....................",
"....................",
"....................",
"....................",
"...................."};
