/* XPM */
static char * close_pressed_xpm[] = {
"20 30 32 1",
" 	c None",
".	c #4B0082",
"+	c #61057E",
"@	c #A51A63",
"#	c #C4234B",
"$	c #D1263B",
"%	c #C4234C",
"&	c #A41A64",
"*	c #8E1470",
"=	c #D1263C",
"-	c #D52735",
";	c #8D1370",
">	c #D52736",
",	c #CF2634",
"'	c #D22734",
")	c #D0263C",
"!	c #62057E",
"~	c #D02634",
"{	c #72151C",
"]	c #7D171F",
"^	c #CC2533",
"/	c #A51A64",
"(	c #C5234B",
"_	c #6A131A",
":	c #7C171F",
"<	c #7B161F",
"[	c #CB2533",
"}	c #CA2532",
"|	c #A41B64",
"1	c #D0263D",
"2	c #8B1470",
"3	c #C3224C",
"....................",
"....................",
"....................",
"....................",
"....................",
"....................",
"....................",
"....................",
"......+@#$$%&+......",
".....*=------=;.....",
"....*>-------->;....",
"...+=--,'--',--)!...",
"...@--~{]^^]{~--/...",
"...(--']_::_]'--%...",
"...=---^]__<[---=...",
"...=---^]__<}---)...",
"...#--']_::_]'--%...",
"...&--~{]^^]{~--|...",
"...+=--~'--'~--1+...",
"....;>-------->2....",
".....;)------12.....",
"......!/3==3|+......",
"....................",
"....................",
"....................",
"....................",
"....................",
"....................",
"....................",
"...................."};
