/* XPM */
static char * maximize_pressed_xpm[] = {
"20 30 29 1",
" 	c None",
".	c #4B0082",
"+	c #483E7D",
"@	c #368F5F",
"#	c #25B041",
"$	c #18BD29",
"%	c #25AF41",
"&	c #378F5F",
"*	c #3E746D",
"=	c #19BD2B",
"-	c #13C11E",
";	c #3F756D",
">	c #14C11F",
",	c #19BC2B",
"'	c #483B7D",
")	c #11B01B",
"!	c #0A6810",
"~	c #09600F",
"{	c #0D8114",
"]	c #378E5F",
"^	c #24AF40",
"/	c #19BD2A",
"(	c #12B21C",
"_	c #0A6A10",
":	c #378F60",
"<	c #1ABC2C",
"[	c #48397D",
"}	c #3F736E",
"|	c #26AF42",
"....................",
"....................",
"....................",
"....................",
"....................",
"....................",
"....................",
"....................",
"......+@#$$%&+......",
".....*=------=;.....",
"....*>-------->;....",
"...+=----------,'...",
"...@----)!~~{---]...",
"...^---)-)!~~---%...",
".../---!)-(_~---=...",
"...=---~!)-(_---,...",
"...#---~~!)-)---%...",
"...&---{~~!)----:...",
"...+=----------<[...",
"....;>-------->}....",
".....;,------<}.....",
"......']|//|:[......",
"....................",
"....................",
"....................",
"....................",
"....................",
"....................",
"....................",
"...................."};
