/* XPM */
static char * maximize_prelight_xpm[] = {
"20 30 32 1",
" 	c None",
".	c #4B0082",
"+	c #483E7D",
"@	c #36935E",
"#	c #28C440",
"$	c #25D236",
"%	c #25D235",
"&	c #28C341",
"*	c #3E766D",
"=	c #27D135",
"-	c #36E746",
";	c #39EA49",
">	c #26D135",
",	c #2CDB3A",
"'	c #2BDB3A",
")	c #26D137",
"!	c #483B7D",
"~	c #34D643",
"{	c #1F7F28",
"]	c #1C7524",
"^	c #269D31",
"/	c #37935F",
"(	c #29C241",
"_	c #27D136",
":	c #34D542",
"<	c #35D843",
"[	c #1F8028",
"}	c #28C441",
"|	c #26D036",
"1	c #48397D",
"2	c #2BDB39",
"3	c #3F746E",
"....................",
"....................",
"....................",
"....................",
"....................",
"....................",
"....................",
"....................",
"......+@#$%&@+......",
".....*=-;;;;->*.....",
"....*,;;;;;;;;'*....",
"...+=;;;;;;;;;;)!...",
"...@-;;;~{]]^;;-/...",
"...#;;;~;~{]];;;(...",
"..._;;;{:;<[];;;>...",
"...=;;;]{:;<[;;;)...",
"...};;;]]{~;~;;;(...",
"...@-;;^]]{~;;;-/...",
"...+>;;;;;;;;;;|1...",
"....*';;;;;;;;23....",
".....*)-;;;;-|3.....",
"......!/(>>(/1......",
"....................",
"....................",
"....................",
"....................",
"....................",
"....................",
"....................",
"...................."};
