/* XPM */
static char * top_left_active_xpm[] = {
"2 30 2 1",
" 	c None",
".	c #4B0082",
" .",
"..",
"..",
"..",
"..",
"..",
"..",
"..",
"..",
"..",
"..",
"..",
"..",
"..",
"..",
"..",
"..",
"..",
"..",
"..",
"..",
"..",
"..",
"..",
"..",
"..",
"..",
"..",
"..",
".."};
