/* XPM */
static char * close_active_xpm[] = {
"20 30 65 1",
" 	c None",
".	c #3B66A5",
"+	c #3A65A4",
"@	c #3964A4",
"#	c #3964A3",
"$	c #3863A3",
"%	c #3863A2",
"&	c #3762A2",
"*	c #3661A1",
"=	c #435B98",
"-	c #8B4267",
";	c #C93A4C",
">	c #DD3946",
",	c #C83A4D",
"'	c #8B4367",
")	c #3560A0",
"!	c #6A4C7B",
"~	c #DD3B46",
"{	c #F04D54",
"]	c #F25056",
"^	c #DC3B46",
"/	c #6A4D7B",
"(	c #E8414A",
"_	c #E7414A",
":	c #345F9F",
"<	c #415996",
"[	c #415A95",
"}	c #335E9E",
"|	c #8A4166",
"1	c #F04E54",
"2	c #8A4267",
"3	c #325E9E",
"4	c #C83A4C",
"5	c #C73B4C",
"6	c #315D9D",
"7	c #DE3A47",
"8	c #DD3A46",
"9	c #315C9C",
"0	c #305B9B",
"a	c #C63B4C",
"b	c #2F5B9B",
"c	c #884065",
"d	c #874167",
"e	c #2E5A9A",
"f	c #3C5591",
"g	c #DC3A46",
"h	c #DB3B46",
"i	c #3B5591",
"j	c #2D5999",
"k	c #654877",
"l	c #634978",
"m	c #2C5898",
"n	c #3A538F",
"o	c #863F65",
"p	c #C6394C",
"q	c #864065",
"r	c #395490",
"s	c #2B5797",
"t	c #2A5697",
"u	c #295596",
"v	c #295595",
"w	c #285494",
"x	c #275394",
"y	c #265293",
"z	c #255192",
"....................",
"++++++++++++++++++++",
"@@@@@@@@@@@@@@@@@@@@",
"####################",
"$$$$$$$$$$$$$$$$$$$$",
"%%%%%%%%%%%%%%%%%%%%",
"&&&&&&&&&&&&&&&&&&&&",
"********************",
"******=-;>>,'=******",
")))))!~{]]]]{^/)))))",
"))))!(]]]]]]]]_/))))",
":::<~]]]]]]]]]]^[:::",
"}}}|{]]]]]]]]]]12}}}",
"3334]]]]]]]]]]]]5333",
"6667]]]]]]]]]]]]8666",
"9998]]]]]]]]]]]]^999",
"000,]]]]]]]]]]]]a000",
"bbbc{]]]]]]]]]]{dbbb",
"eeefg]]]]]]]]]]hieee",
"jjjjk_]]]]]]]]_ljjjj",
"jjjjjkg1]]]]{hljjjjj",
"mmmmmmnop88pqrmmmmmm",
"ssssssssssssssssssss",
"tttttttttttttttttttt",
"uuuuuuuuuuuuuuuuuuuu",
"vvvvvvvvvvvvvvvvvvvv",
"wwwwwwwwwwwwwwwwwwww",
"xxxxxxxxxxxxxxxxxxxx",
"yyyyyyyyyyyyyyyyyyyy",
"zzzzzzzzzzzzzzzzzzzz"};
