/* XPM */
static char * close_prelight_xpm[] = {
"20 30 77 1",
" 	c None",
".	c #3B66A5",
"+	c #3A65A4",
"@	c #3964A4",
"#	c #3964A3",
"$	c #3863A3",
"%	c #3863A2",
"&	c #3762A2",
"*	c #3661A1",
"=	c #435B98",
"-	c #8B4267",
";	c #C93A4C",
">	c #DD3946",
",	c #C83A4D",
"'	c #8B4367",
")	c #3560A0",
"!	c #6A4C7B",
"~	c #DD3B46",
"{	c #F04D54",
"]	c #F25056",
"^	c #DC3B46",
"/	c #6A4D7B",
"(	c #E8414A",
"_	c #E7414A",
":	c #345F9F",
"<	c #415996",
"[	c #EB4E54",
"}	c #EF4F55",
"|	c #415A95",
"1	c #335E9E",
"2	c #8A4166",
"3	c #EC4E54",
"4	c #812B2E",
"5	c #8E2F33",
"6	c #E84D52",
"7	c #822B2E",
"8	c #F04E54",
"9	c #8A4267",
"0	c #325E9E",
"a	c #C83A4C",
"b	c #79282B",
"c	c #8D2F32",
"d	c #C73B4C",
"e	c #315D9D",
"f	c #DE3A47",
"g	c #8C2E32",
"h	c #E74C52",
"i	c #DD3A46",
"j	c #315C9C",
"k	c #E64C52",
"l	c #305B9B",
"m	c #C63B4C",
"n	c #2F5B9B",
"o	c #884065",
"p	c #874167",
"q	c #2E5A9A",
"r	c #3C5591",
"s	c #DC3A46",
"t	c #DB3B46",
"u	c #3B5591",
"v	c #2D5999",
"w	c #654877",
"x	c #634978",
"y	c #2C5898",
"z	c #3A538F",
"A	c #863F65",
"B	c #C6394C",
"C	c #864065",
"D	c #395490",
"E	c #2B5797",
"F	c #2A5697",
"G	c #295596",
"H	c #295595",
"I	c #285494",
"J	c #275394",
"K	c #265293",
"L	c #255192",
"....................",
"++++++++++++++++++++",
"@@@@@@@@@@@@@@@@@@@@",
"####################",
"$$$$$$$$$$$$$$$$$$$$",
"%%%%%%%%%%%%%%%%%%%%",
"&&&&&&&&&&&&&&&&&&&&",
"********************",
"******=-;>>,'=******",
")))))!~{]]]]{^/)))))",
"))))!(]]]]]]]]_/))))",
":::<~]][}]]}[]]^|:::",
"1112{]34566573]89111",
"000a]]}5bccb5}]]d000",
"eeef]]]65bbgh]]]ieee",
"jjji]]]65bbgk]]]^jjj",
"lll,]]}5bccb5}]]mlll",
"nnno{]37566573]{pnnn",
"qqqrs]]3}]]}3]]tuqqq",
"vvvvw_]]]]]]]]_xvvvv",
"vvvvvws8]]]]{txvvvvv",
"yyyyyyzABiiBCDyyyyyy",
"EEEEEEEEEEEEEEEEEEEE",
"FFFFFFFFFFFFFFFFFFFF",
"GGGGGGGGGGGGGGGGGGGG",
"HHHHHHHHHHHHHHHHHHHH",
"IIIIIIIIIIIIIIIIIIII",
"JJJJJJJJJJJJJJJJJJJJ",
"KKKKKKKKKKKKKKKKKKKK",
"LLLLLLLLLLLLLLLLLLLL"};
