/* XPM */
static char * hide_pressed_xpm[] = {
"20 30 67 1",
" 	c None",
".	c #3B66A5",
"+	c #3A65A4",
"@	c #3964A4",
"#	c #3964A3",
"$	c #3863A3",
"%	c #3863A2",
"&	c #3762A2",
"*	c #3661A1",
"=	c #446694",
"-	c #8A8055",
";	c #BB922B",
">	c #D29B16",
",	c #BA922B",
"'	c #8A8056",
")	c #3560A0",
"!	c #6C756F",
"~	c #D19A17",
"{	c #DA9E10",
"]	c #6B7470",
"^	c #D99D10",
"/	c #345F9F",
"(	c #426492",
"_	c #D09A17",
":	c #416492",
"<	c #335E9E",
"[	c #897F53",
"}	c #887F55",
"|	c #325E9E",
"1	c #BB922A",
"2	c #B9912B",
"3	c #315D9D",
"4	c #D29A16",
"5	c #85610A",
"6	c #6D4F08",
"7	c #315C9C",
"8	c #86610A",
"9	c #87620A",
"0	c #305B9B",
"a	c #BA912A",
"b	c #B9912A",
"c	c #2F5B9B",
"d	c #867D53",
"e	c #857C54",
"f	c #2E5A9A",
"g	c #3D608D",
"h	c #CF9A18",
"i	c #3B5E8E",
"j	c #2D5999",
"k	c #666F6B",
"l	c #646F6C",
"m	c #CF9918",
"n	c #2C5898",
"o	c #3A5D8C",
"p	c #847C52",
"q	c #B7902A",
"r	c #D19A16",
"s	c #837B53",
"t	c #395D8D",
"u	c #2B5797",
"v	c #2A5697",
"w	c #295596",
"x	c #295595",
"y	c #285494",
"z	c #275394",
"A	c #265293",
"B	c #255192",
"....................",
"++++++++++++++++++++",
"@@@@@@@@@@@@@@@@@@@@",
"####################",
"$$$$$$$$$$$$$$$$$$$$",
"%%%%%%%%%%%%%%%%%%%%",
"&&&&&&&&&&&&&&&&&&&&",
"********************",
"******=-;>>,'=******",
")))))!~{{{{{{~])))))",
"))))!^{{{{{{{{^]))))",
"///(~{{{{{{{{{{_:///",
"<<<[{{{{{{{{{{{{}<<<",
"|||1{{{{{{{{{{{{2|||",
"3334{{56666665{{~333",
"777~{{86666669{{_777",
"000a{{{{{{{{{{{{b000",
"cccd{{{{{{{{{{{{eccc",
"fffg~{{{{{{{{{{hifff",
"jjjjk^{{{{{{{{^ljjjj",
"jjjjjk_{{{{{{mljjjjj",
"nnnnnnopqrrqstnnnnnn",
"uuuuuuuuuuuuuuuuuuuu",
"vvvvvvvvvvvvvvvvvvvv",
"wwwwwwwwwwwwwwwwwwww",
"xxxxxxxxxxxxxxxxxxxx",
"yyyyyyyyyyyyyyyyyyyy",
"zzzzzzzzzzzzzzzzzzzz",
"AAAAAAAAAAAAAAAAAAAA",
"BBBBBBBBBBBBBBBBBBBB"};
