/* XPM */
static char * close_inactive_xpm[] = {
"20 30 20 1",
" 	c None",
".	c #228B22",
"+	c #439043",
"@	c #8EA68E",
"#	c #B4B9B4",
"$	c #BEBFBE",
"%	c #BFC0BF",
"&	c #B3B8B3",
"*	c #8FA78F",
"=	c #759D75",
"-	c #C7C7C7",
";	c #C8C8C8",
">	c #749D74",
",	c #C3C3C3",
"'	c #BEC0BE",
")	c #418F41",
"!	c #8EA78E",
"~	c #B3B9B3",
"{	c #C2C2C2",
"]	c #739D73",
"....................",
"....................",
"....................",
"....................",
"....................",
"....................",
"....................",
"....................",
"......+@#$%&*+......",
".....=$-;;;;-%>.....",
"....=,;;;;;;;;,>....",
"...+$;;;;;;;;;;')...",
"...@-;;;;;;;;;;-!...",
"...#;;;;;;;;;;;;~...",
"...$;;;;;;;;;;;;$...",
"...$;;;;;;;;;;;;'...",
"...&;;;;;;;;;;;;~...",
"...*-;;;;;;;;;;-!...",
"...+%;;;;;;;;;;$+...",
"....>,;;;;;;;;{]....",
".....>'-;;;;-$].....",
"......)!~%%~!+......",
"....................",
"....................",
"....................",
"....................",
"....................",
"....................",
"....................",
"...................."};
