/* XPM */
static char * maximize_active_xpm[] = {
"20 30 24 1",
" 	c None",
".	c #228B22",
"+	c #219122",
"@	c #1CAC22",
"#	c #1FC92C",
"$	c #24D332",
"%	c #24D331",
"&	c #1DAC21",
"*	c #1EA021",
"=	c #25D231",
"-	c #36E746",
";	c #39EA49",
">	c #24D231",
",	c #1EA121",
"'	c #2CDB3A",
")	c #2BDB3A",
"!	c #24D232",
"~	c #219121",
"{	c #20C72B",
"]	c #25D232",
"^	c #24D131",
"/	c #219021",
"(	c #2BDB39",
"_	c #20C72C",
"....................",
"....................",
"....................",
"....................",
"....................",
"....................",
"....................",
"....................",
"......+@#$%#&+......",
".....*=-;;;;->,.....",
"....*';;;;;;;;),....",
"...+=;;;;;;;;;;!~...",
"...@-;;;;;;;;;;-&...",
"...#;;;;;;;;;;;;{...",
"...];;;;;;;;;;;;>...",
"...=;;;;;;;;;;;;!...",
"...#;;;;;;;;;;;;{...",
"...&-;;;;;;;;;;-&...",
"...+>;;;;;;;;;;^/...",
"....,);;;;;;;;(*....",
".....,!-;;;;-^*.....",
"......~&_>>_&/......",
"....................",
"....................",
"....................",
"....................",
"....................",
"....................",
"....................",
"...................."};
