/* XPM */
static char * close_pressed_xpm[] = {
"20 30 28 1",
" 	c None",
".	c #FF4500",
"+	c #FB430C",
"@	c #EB3824",
"#	c #DE2E2F",
"$	c #D72934",
"%	c #DE2F2F",
"&	c #EA3825",
"*	c #F23D1D",
"=	c #D52735",
"-	c #F23D1C",
";	c #CF2634",
">	c #D22734",
",	c #D82933",
"'	c #FC4308",
")	c #D02634",
"!	c #72151C",
"~	c #7D171F",
"{	c #CC2533",
"]	c #EB3825",
"^	c #DE2E30",
"/	c #6A131A",
"(	c #7C171F",
"_	c #D72935",
":	c #7B161F",
"<	c #CB2533",
"[	c #CA2532",
"}	c #FC4309",
"....................",
"....................",
"....................",
"....................",
"....................",
"....................",
"....................",
"....................",
"......+@#$$%&+......",
".....*$======$-.....",
"....*==========-....",
"...+$==;>==>;==,'...",
"...@==)!~{{~!)==]...",
"...^==>~/((/~>==%...",
"..._==={~//:<===$...",
"...$==={~//:[===,...",
"...#==>~/((/~>==%...",
"...&==)!~{{~!)==@...",
"...+$==)>==>)==,}...",
"....-==========-....",
".....-,======,-.....",
"......']%__%@}......",
"....................",
"....................",
"....................",
"....................",
"....................",
"....................",
"....................",
"...................."};
