/* XPM */
static char * hide_inactive_xpm[] = {
"20 30 22 1",
" 	c None",
".	c #FF4500",
"+	c #FA573A",
"@	c #DD938C",
"#	c #C9B5B3",
"$	c #C2BEBE",
"%	c #C3BFBF",
"&	c #C8B4B2",
"*	c #DF948D",
"=	c #EB7E72",
"-	c #C7C7C7",
";	c #C8C8C8",
">	c #EB7D71",
",	c #C3C3C3",
"'	c #C3BFBE",
")	c #FA5637",
"!	c #DF938C",
"~	c #C9B4B3",
"{	c #C4BEBE",
"]	c #FB5739",
"^	c #C2C2C2",
"/	c #EC7C70",
"....................",
"....................",
"....................",
"....................",
"....................",
"....................",
"....................",
"....................",
"......+@#$%&*+......",
".....=$-;;;;-%>.....",
"....=,;;;;;;;;,>....",
"...+$;;;;;;;;;;')...",
"...@-;;;;;;;;;;-!...",
"...#;;;;;;;;;;;;~...",
"...$;;;;;;;;;;;;$...",
"...$;;;;;;;;;;;;'...",
"...&;;;;;;;;;;;;~...",
"...*-;;;;;;;;;;-!...",
"...+%;;;;;;;;;;{]...",
"....>,;;;;;;;;^/....",
".....>'-;;;;-{/.....",
"......)!~%%~!]......",
"....................",
"....................",
"....................",
"....................",
"....................",
"....................",
"....................",
"...................."};
