/* XPM */
static char * close_inactive_xpm[] = {
"20 30 65 1",
" 	c None",
".	c #C04F34",
"+	c #C04E33",
"@	c #BF4D32",
"#	c #BE4C31",
"$	c #BD4B30",
"%	c #BC4A2F",
"&	c #BB492E",
"*	c #BA482D",
"=	c #B95139",
"-	c #BA8578",
";	c #BEAFAC",
">	c #BFBDBC",
",	c #C0BEBD",
"'	c #BDAEAA",
")	c #BB8579",
"!	c #B9472C",
"~	c #B96E5C",
"{	c #BFBCBB",
"]	c #C7C7C7",
"^	c #C8C8C8",
"/	c #C0BDBC",
"(	c #B96D5B",
"_	c #C3C3C3",
":	c #B8462B",
"<	c #B84F37",
"[	c #B74F36",
"}	c #B7452A",
"|	c #B88377",
"1	c #B98376",
"2	c #B64429",
"3	c #BDAFAB",
"4	c #B54328",
"5	c #B44328",
"6	c #B34227",
"7	c #BCADA9",
"8	c #BDADAA",
"9	c #B24126",
"0	c #B78276",
"a	c #B78174",
"b	c #B14025",
"c	c #B14A31",
"d	c #C0BCBB",
"e	c #B24931",
"f	c #B03F24",
"g	c #B36856",
"h	c #C2C2C2",
"i	c #B36755",
"j	c #B03F23",
"k	c #B36855",
"l	c #C0BCBC",
"m	c #B36754",
"n	c #AF3E22",
"o	c #AF472E",
"p	c #B58072",
"q	c #B57F72",
"r	c #B0482E",
"s	c #AE3D21",
"t	c #AD3C20",
"u	c #AC3B1F",
"v	c #AC3A1E",
"w	c #AB391D",
"x	c #AA381C",
"y	c #A9371B",
"z	c #A8361A",
"....................",
"++++++++++++++++++++",
"@@@@@@@@@@@@@@@@@@@@",
"####################",
"$$$$$$$$$$$$$$$$$$$$",
"$$$$$$$$$$$$$$$$$$$$",
"%%%%%%%%%%%%%%%%%%%%",
"&&&&&&&&&&&&&&&&&&&&",
"******=-;>,')=******",
"!!!!!~{]^^^^]/(!!!!!",
"!!!!~_^^^^^^^^_(!!!!",
":::<{^^^^^^^^^^/[:::",
"}}}|]^^^^^^^^^^]1}}}",
"2223^^^^^^^^^^^^'222",
"444{^^^^^^^^^^^^{444",
"555{^^^^^^^^^^^^/555",
"6667^^^^^^^^^^^^8666",
"9990]^^^^^^^^^^]a999",
"bbbc/^^^^^^^^^^debbb",
"ffffg_^^^^^^^^hiffff",
"jjjjjkl]^^^^]dmjjjjj",
"nnnnnnop7//7qrnnnnnn",
"ssssssssssssssssssss",
"tttttttttttttttttttt",
"uuuuuuuuuuuuuuuuuuuu",
"vvvvvvvvvvvvvvvvvvvv",
"wwwwwwwwwwwwwwwwwwww",
"xxxxxxxxxxxxxxxxxxxx",
"yyyyyyyyyyyyyyyyyyyy",
"zzzzzzzzzzzzzzzzzzzz"};
