/* XPM */
static char * hide_prelight_xpm[] = {
"20 30 69 1",
" 	c None",
".	c #C04F34",
"+	c #C04E33",
"@	c #BF4D32",
"#	c #BE4C31",
"$	c #BD4B30",
"%	c #BC4A2F",
"&	c #BB492E",
"*	c #BA482D",
"=	c #BC4F2A",
"-	c #CC781F",
";	c #DF9E1F",
">	c #E7AC21",
",	c #E6AC21",
"'	c #DE9E20",
")	c #CC771F",
"!	c #B9472C",
"~	c #C46522",
"{	c #E7AD21",
"]	c #F8C334",
"^	c #FAC536",
"/	c #E6AD21",
"(	c #C46422",
"_	c #EEB729",
":	c #B8462B",
"<	c #BB4D28",
"[	c #BA4D28",
"}	c #B7452A",
"|	c #CB761D",
"1	c #F8C333",
"2	c #CA751D",
"3	c #B64429",
"4	c #DE9D1E",
"5	c #DF9D1E",
"6	c #B54328",
"7	c #E7AD22",
"8	c #997921",
"9	c #7D621B",
"0	c #B44328",
"a	c #9A7921",
"b	c #9B7A21",
"c	c #B34227",
"d	c #B24126",
"e	c #C8741B",
"f	c #F7C233",
"g	c #C7731C",
"h	c #B14025",
"i	c #B44822",
"j	c #B44623",
"k	c #B03F24",
"l	c #BE5F1D",
"m	c #EEB628",
"n	c #BD5E1D",
"o	c #B03F23",
"p	c #BE5F1C",
"q	c #BD5E1C",
"r	c #AF3E22",
"s	c #B24520",
"t	c #C7721A",
"u	c #DE9C1D",
"v	c #C6711A",
"w	c #AE3D21",
"x	c #AD3C20",
"y	c #AC3B1F",
"z	c #AC3A1E",
"A	c #AB391D",
"B	c #AA381C",
"C	c #A9371B",
"D	c #A8361A",
"....................",
"++++++++++++++++++++",
"@@@@@@@@@@@@@@@@@@@@",
"####################",
"$$$$$$$$$$$$$$$$$$$$",
"$$$$$$$$$$$$$$$$$$$$",
"%%%%%%%%%%%%%%%%%%%%",
"&&&&&&&&&&&&&&&&&&&&",
"******=-;>,')=******",
"!!!!!~{]^^^^]/(!!!!!",
"!!!!~_^^^^^^^^_(!!!!",
":::<{^^^^^^^^^^{[:::",
"}}}|]^^^^^^^^^^12}}}",
"3334^^^^^^^^^^^^5333",
"6667^^89999998^^/666",
"000{^^a999999b^^>000",
"ccc5^^^^^^^^^^^^5ccc",
"ddde]^^^^^^^^^^fgddd",
"hhhi,^^^^^^^^^^>jhhh",
"kkkkl_^^^^^^^^mnkkkk",
"ooooop>1^^^^f,qooooo",
"rrrrrrstu>>uvsrrrrrr",
"wwwwwwwwwwwwwwwwwwww",
"xxxxxxxxxxxxxxxxxxxx",
"yyyyyyyyyyyyyyyyyyyy",
"zzzzzzzzzzzzzzzzzzzz",
"AAAAAAAAAAAAAAAAAAAA",
"BBBBBBBBBBBBBBBBBBBB",
"CCCCCCCCCCCCCCCCCCCC",
"DDDDDDDDDDDDDDDDDDDD"};
