/* XPM */
static char * maximize_active_xpm[] = {
"20 30 67 1",
" 	c None",
".	c #C04F34",
"+	c #C04E33",
"@	c #BF4D32",
"#	c #BE4C31",
"$	c #BD4B30",
"%	c #BC4A2F",
"&	c #BB492E",
"*	c #BA482D",
"=	c #AB522C",
"-	c #618A27",
";	c #33BE2D",
">	c #27D031",
",	c #27D030",
"'	c #33BD2D",
")	c #638926",
"!	c #B9472C",
"~	c #807027",
"{	c #29D030",
"]	c #36E746",
"^	c #39EA49",
"/	c #28D030",
"(	c #817027",
"_	c #2CDB3A",
":	c #2BDB3A",
"<	c #B8462B",
"[	c #AA502A",
"}	c #28CF31",
"|	c #AA5029",
"1	c #B7452A",
"2	c #608825",
"3	c #628724",
"4	c #B64429",
"5	c #32BD2C",
"6	c #34BB2B",
"7	c #B54328",
"8	c #28D031",
"9	c #B44328",
"0	c #B34227",
"a	c #B24126",
"b	c #5F8622",
"c	c #618523",
"d	c #B14025",
"e	c #A34B24",
"f	c #27CF30",
"g	c #28CD30",
"h	c #A44924",
"i	c #B03F24",
"j	c #7B6B22",
"k	c #2BDB39",
"l	c #7C6922",
"m	c #B03F23",
"n	c #7B6B21",
"o	c #7C6921",
"p	c #AF3E22",
"q	c #A24821",
"r	c #5F8420",
"s	c #33BB2B",
"t	c #5F8421",
"u	c #AE3D21",
"v	c #AD3C20",
"w	c #AC3B1F",
"x	c #AC3A1E",
"y	c #AB391D",
"z	c #AA381C",
"A	c #A9371B",
"B	c #A8361A",
"....................",
"++++++++++++++++++++",
"@@@@@@@@@@@@@@@@@@@@",
"####################",
"$$$$$$$$$$$$$$$$$$$$",
"$$$$$$$$$$$$$$$$$$$$",
"%%%%%%%%%%%%%%%%%%%%",
"&&&&&&&&&&&&&&&&&&&&",
"******=-;>,')=******",
"!!!!!~{]^^^^]/(!!!!!",
"!!!!~_^^^^^^^^:(!!!!",
"<<<[{^^^^^^^^^^}|<<<",
"1112]^^^^^^^^^^]3111",
"4445^^^^^^^^^^^^6444",
"7778^^^^^^^^^^^^,777",
"999/^^^^^^^^^^^^}999",
"0005^^^^^^^^^^^^6000",
"aaab]^^^^^^^^^^]caaa",
"dddef^^^^^^^^^^ghddd",
"iiiij:^^^^^^^^kliiii",
"mmmmmn}]^^^^]gommmmm",
"ppppppqrsffstqpppppp",
"uuuuuuuuuuuuuuuuuuuu",
"vvvvvvvvvvvvvvvvvvvv",
"wwwwwwwwwwwwwwwwwwww",
"xxxxxxxxxxxxxxxxxxxx",
"yyyyyyyyyyyyyyyyyyyy",
"zzzzzzzzzzzzzzzzzzzz",
"AAAAAAAAAAAAAAAAAAAA",
"BBBBBBBBBBBBBBBBBBBB"};
