/* XPM */
static char * top_left_inactive_xpm[] = {
"2 30 29 1",
" 	c None",
".	c #C04F34",
"+	c #C04E33",
"@	c #BF4D32",
"#	c #BE4C31",
"$	c #BD4B30",
"%	c #BC4A2F",
"&	c #BB492E",
"*	c #BA482D",
"=	c #B9472C",
"-	c #B8462B",
";	c #B7452A",
">	c #B64429",
",	c #B54328",
"'	c #B44328",
")	c #B34227",
"!	c #B24126",
"~	c #B14025",
"{	c #B03F24",
"]	c #B03F23",
"^	c #AF3E22",
"/	c #AE3D21",
"(	c #AD3C20",
"_	c #AC3B1F",
":	c #AC3A1E",
"<	c #AB391D",
"[	c #AA381C",
"}	c #A9371B",
"|	c #A8361A",
" .",
"++",
"@@",
"##",
"$$",
"$$",
"%%",
"&&",
"**",
"==",
"==",
"--",
";;",
">>",
",,",
"''",
"))",
"!!",
"~~",
"{{",
"]]",
"^^",
"//",
"((",
"__",
"::",
"<<",
"[[",
"}}",
"||"};
