/* XPM */
static char * close_active_xpm[] = {
"20 30 61 1",
" 	c None",
".	c #D53D3D",
"+	c #D43C3C",
"@	c #D33B3B",
"#	c #D23B3B",
"$	c #D13A3A",
"%	c #D13939",
"&	c #D03838",
"*	c #CF3838",
"=	c #CE3737",
"-	c #CE3537",
";	c #D22F36",
">	c #DC353E",
",	c #E13843",
"'	c #DC353F",
")	c #CD3636",
"!	c #CF3035",
"~	c #E13943",
"{	c #F04D54",
"]	c #F25056",
"^	c #E03943",
"/	c #CF3135",
"(	c #E8414A",
"_	c #E7414A",
":	c #CC3535",
"<	c #CC3335",
"[	c #CD3334",
"}	c #CB3434",
"|	c #D02E35",
"1	c #F04E54",
"2	c #D22E35",
"3	c #CB3333",
"4	c #DC343E",
"5	c #CA3232",
"6	c #E23944",
"7	c #C93131",
"8	c #DB353D",
"9	c #C83030",
"0	c #CF2C33",
"a	c #D02C34",
"b	c #C82F2F",
"c	c #C82D2F",
"d	c #E13942",
"e	c #C92E2F",
"f	c #C72E2E",
"g	c #CB2B2F",
"h	c #CB2C2F",
"i	c #C72D2D",
"j	c #C62C2C",
"k	c #C72B2C",
"l	c #CF2A31",
"m	c #DB333E",
"n	c #CF2A32",
"o	c #C52B2B",
"p	c #C42A2A",
"q	c #C42929",
"r	c #C32828",
"s	c #C22727",
"t	c #C22626",
"u	c #C12525",
"v	c #C02424",
"....................",
"++++++++++++++++++++",
"@@@@@@@@@@@@@@@@@@@@",
"####################",
"$$$$$$$$$$$$$$$$$$$$",
"%%%%%%%%%%%%%%%%%%%%",
"&&&&&&&&&&&&&&&&&&&&",
"********************",
"======-;>,,';-======",
")))))!~{]]]]{^/)))))",
"))))!(]]]]]]]]_/))))",
":::<~]]]]]]]]]]~[:::",
"}}}|{]]]]]]]]]]12}}}",
"3334]]]]]]]]]]]]>333",
"5556]]]]]]]]]]]]~555",
"555~]]]]]]]]]]]]~555",
"7774]]]]]]]]]]]]8777",
"9990{]]]]]]]]]]{a999",
"bbbc^]]]]]]]]]]debbb",
"ffffg_]]]]]]]]_hffff",
"iiiiig~1]]]]{dgiiiii",
"jjjjjjklm~~mnkjjjjjj",
"oooooooooooooooooooo",
"pppppppppppppppppppp",
"qqqqqqqqqqqqqqqqqqqq",
"rrrrrrrrrrrrrrrrrrrr",
"ssssssssssssssssssss",
"tttttttttttttttttttt",
"uuuuuuuuuuuuuuuuuuuu",
"vvvvvvvvvvvvvvvvvvvv"};
