/* XPM */
static char * close_inactive_xpm[] = {
"20 30 21 1",
" 	c None",
".	c #D02090",
"+	c #CE4294",
"@	c #C58EA8",
"#	c #C1B4BA",
"$	c #C0BEBF",
"%	c #C1BFC0",
"&	c #C1B3B9",
"*	c #C68FA9",
"=	c #C975A0",
"-	c #C7C7C7",
";	c #C8C8C8",
">	c #C974A0",
",	c #C3C3C3",
"'	c #C1BEC0",
")	c #CE4094",
"!	c #C68EA9",
"~	c #C2BEC0",
"{	c #CF4294",
"]	c #C2C2C2",
"^	c #C973A0",
"....................",
"....................",
"....................",
"....................",
"....................",
"....................",
"....................",
"....................",
"......+@#$%&*+......",
".....=$-;;;;-%>.....",
"....=,;;;;;;;;,>....",
"...+$;;;;;;;;;;')...",
"...@-;;;;;;;;;;-!...",
"...#;;;;;;;;;;;;&...",
"...$;;;;;;;;;;;;$...",
"...$;;;;;;;;;;;;'...",
"...&;;;;;;;;;;;;&...",
"...*-;;;;;;;;;;-!...",
"...+%;;;;;;;;;;~{...",
"....>,;;;;;;;;]^....",
".....>'-;;;;-~^.....",
"......)!&%%&!{......",
"....................",
"....................",
"....................",
"....................",
"....................",
"....................",
"....................",
"...................."};
