/* XPM */
static char * close_active_xpm[] = {
"20 30 26 1",
" 	c None",
".	c #DAA520",
"+	c #D99F23",
"@	c #D8772D",
"#	c #DE503D",
"$	c #E23E43",
"%	c #DE503E",
"&	c #D8782D",
"*	c #D88B28",
"=	c #E24043",
"-	c #F04D54",
";	c #F25056",
">	c #E14043",
",	c #D88B27",
"'	c #E8414A",
")	c #E7414A",
"!	c #E24143",
"~	c #DA9F22",
"{	c #F04E54",
"]	c #D9792E",
"^	c #DE523D",
"/	c #E34044",
"(	c #DF503E",
"_	c #E24242",
":	c #D88C28",
"<	c #DE513E",
"....................",
"....................",
"....................",
"....................",
"....................",
"....................",
"....................",
"....................",
"......+@#$$%&+......",
".....*=-;;;;->,.....",
"....*';;;;;;;;),....",
"...+=;;;;;;;;;;!~...",
"...@-;;;;;;;;;;{]...",
"...#;;;;;;;;;;;;^...",
".../;;;;;;;;;;;;=...",
"...=;;;;;;;;;;;;!...",
"...(;;;;;;;;;;;;^...",
"...&-;;;;;;;;;;-]...",
"...+>;;;;;;;;;;_~...",
"....,);;;;;;;;):....",
".....,!{;;;;-_:.....",
"......~]<==<]~......",
"....................",
"....................",
"....................",
"....................",
"....................",
"....................",
"....................",
"...................."};
