/* XPM */
static char * maximize_prelight_xpm[] = {
"20 30 34 1",
" 	c None",
".	c #DAA520",
"+	c #D2A820",
"@	c #9BB621",
"#	c #5ACB2C",
"$	c #34D332",
"%	c #34D331",
"&	c #5BCB2B",
"*	c #9CB620",
"=	c #B6AF1F",
"-	c #36D331",
";	c #36E746",
">	c #39EA49",
",	c #B6B01F",
"'	c #2CDB3A",
")	c #2BDB3A",
"!	c #38D332",
"~	c #D2A81F",
"{	c #34D643",
"]	c #1F7F28",
"^	c #1C7524",
"/	c #269D31",
"(	c #9DB620",
"_	c #5DCA2B",
":	c #36D332",
"<	c #34D542",
"[	c #35D843",
"}	c #1F8028",
"|	c #5BCC2B",
"1	c #9EB721",
"2	c #3AD231",
"3	c #D2A720",
"4	c #2BDB39",
"5	c #B7AF20",
"....................",
"....................",
"....................",
"....................",
"....................",
"....................",
"....................",
"....................",
"......+@#$%&*+......",
".....=-;>>>>;-,.....",
"....='>>>>>>>>),....",
"...+->>>>>>>>>>!~...",
"...@;>>>{]^^/>>;(...",
"...#>>>{>{]^^>>>_...",
"...:>>>]<>[}^>>>-...",
"...->>>^]<>[}>>>!...",
"...|>>>^^]{>{>>>_...",
"...*;>>/^^]{>>>;1...",
"...+->>>>>>>>>>23...",
"....,)>>>>>>>>45....",
".....,!;>>>>;25.....",
"......~(_--_13......",
"....................",
"....................",
"....................",
"....................",
"....................",
"....................",
"....................",
"...................."};
