/* XPM */
static char * hide_active_xpm[] = {
"20 30 30 1",
" 	c None",
".	c #708090",
"+	c #7E838A",
"@	c #B59466",
"#	c #DAA63D",
"$	c #E7AE28",
"%	c #E6AE28",
"&	c #D9A73E",
"*	c #B59366",
"=	c #9F8C78",
"-	c #E7AF29",
";	c #F8C334",
">	c #FAC536",
",	c #E6AF29",
"'	c #9E8B78",
")	c #EEB729",
"!	c #E6B02A",
"~	c #7E838B",
"{	c #F8C333",
"]	c #B49367",
"^	c #DBA73E",
"/	c #E7B02A",
"(	c #E6AF2A",
"_	c #DBA63E",
":	c #F7C233",
"<	c #B39267",
"[	c #E6AF2B",
"}	c #7D828B",
"|	c #EEB628",
"1	c #9D8B79",
"....................",
"....................",
"....................",
"....................",
"....................",
"....................",
"....................",
"....................",
"......+@#$%&*+......",
".....=-;>>>>;,'.....",
"....=)>>>>>>>>)'....",
"...+->>>>>>>>>>!~...",
"...@;>>>>>>>>>>{]...",
"...#>>>>>>>>>>>>^...",
".../>>>>>>>>>>>>,...",
"...->>>>>>>>>>>>(...",
"..._>>>>>>>>>>>>^...",
"...*;>>>>>>>>>>:<...",
"...+,>>>>>>>>>>[}...",
"....')>>>>>>>>|1....",
".....'({>>>>:[1.....",
"......~]^--^<}......",
"....................",
"....................",
"....................",
"....................",
"....................",
"....................",
"....................",
"...................."};
