/* XPM */
static char * hide_inactive_xpm[] = {
"20 30 21 1",
" 	c None",
".	c #708090",
"+	c #798694",
"@	c #9DA2A8",
"#	c #B7B8BA",
"$	c #BFBFBF",
"%	c #C0C0C0",
"&	c #B6B7B9",
"*	c #9EA4A9",
"=	c #8F97A0",
"-	c #BEBFBF",
";	c #C7C7C7",
">	c #C8C8C8",
",	c #BFC0C0",
"'	c #8E97A0",
")	c #C3C3C3",
"!	c #BFBFC0",
"~	c #788694",
"{	c #9EA3A9",
"]	c #B7B8B9",
"^	c #C2C2C2",
"....................",
"....................",
"....................",
"....................",
"....................",
"....................",
"....................",
"....................",
"......+@#$%&*+......",
".....=-;>>>>;,'.....",
"....=)>>>>>>>>)'....",
"...+->>>>>>>>>>!~...",
"...@;>>>>>>>>>>;{...",
"...#>>>>>>>>>>>>]...",
"...->>>>>>>>>>>>-...",
"...->>>>>>>>>>>>!...",
"...&>>>>>>>>>>>>]...",
"...*;>>>>>>>>>>;{...",
"...+,>>>>>>>>>>!+...",
"....')>>>>>>>>^'....",
".....'!;>>>>;!'.....",
"......~{],,]{+......",
"....................",
"....................",
"....................",
"....................",
"....................",
"....................",
"....................",
"...................."};
