/* XPM */
static char * close_inactive_xpm[] = {
"20 30 63 1",
" 	c None",
".	c #758494",
"+	c #748393",
"@	c #738293",
"#	c #738292",
"$	c #728292",
"%	c #728191",
"&	c #718191",
"*	c #718091",
"=	c #778494",
"-	c #989FA7",
";	c #B4B6B9",
">	c #BEBEBE",
",	c #BFBFBF",
"'	c #B3B5B8",
")	c #99A0A7",
"!	c #708090",
"~	c #89939E",
"{	c #BDBEBE",
"]	c #C7C7C7",
"^	c #C8C8C8",
"/	c #BEBFBF",
"(	c #88939E",
"_	c #70808F",
":	c #89939D",
"<	c #C3C3C3",
"[	c #88939D",
"}	c #6F7F8F",
"|	c #758492",
"1	c #BEBEBF",
"2	c #748392",
"3	c #6E7E8E",
"4	c #969EA5",
"5	c #969EA6",
"6	c #6D7E8D",
"7	c #B4B6B8",
"8	c #B3B6B8",
"9	c #6C7D8C",
"0	c #6C7C8B",
"a	c #6B7B8A",
"b	c #B2B5B7",
"c	c #B3B5B7",
"d	c #6A7B89",
"e	c #959DA4",
"f	c #949CA3",
"g	c #697A88",
"h	c #6F7F8C",
"i	c #687987",
"j	c #838E98",
"k	c #C2C2C2",
"l	c #838E97",
"m	c #677887",
"n	c #6D7D8A",
"o	c #939BA2",
"p	c #6D7D8B",
"q	c #667887",
"r	c #667787",
"s	c #657786",
"t	c #647686",
"u	c #637686",
"v	c #637586",
"w	c #627586",
"x	c #617486",
"....................",
"++++++++++++++++++++",
"++++++++++++++++++++",
"@@@@@@@@@@@@@@@@@@@@",
"####################",
"$$$$$$$$$$$$$$$$$$$$",
"%%%%%%%%%%%%%%%%%%%%",
"&&&&&&&&&&&&&&&&&&&&",
"******=-;>,')=******",
"!!!!!~{]^^^^]/(!!!!!",
"____:<^^^^^^^^<[____",
"}}}|{^^^^^^^^^^12}}}",
"3334]^^^^^^^^^^]5333",
"6667^^^^^^^^^^^^8666",
"999{^^^^^^^^^^^^{999",
"000{^^^^^^^^^^^^1000",
"aaab^^^^^^^^^^^^caaa",
"ddde]^^^^^^^^^^]fddd",
"gggh/^^^^^^^^^^{hggg",
"iiiij<^^^^^^^^kliiii",
"iiiiij1]^^^^]{liiiii",
"mmmmmmnob11bopmmmmmm",
"qqqqqqqqqqqqqqqqqqqq",
"rrrrrrrrrrrrrrrrrrrr",
"ssssssssssssssssssss",
"tttttttttttttttttttt",
"uuuuuuuuuuuuuuuuuuuu",
"vvvvvvvvvvvvvvvvvvvv",
"wwwwwwwwwwwwwwwwwwww",
"xxxxxxxxxxxxxxxxxxxx"};
