/* XPM */
static char * close_active_xpm[] = {
"20 30 66 1",
" 	c None",
".	c #758494",
"+	c #748393",
"@	c #738293",
"#	c #738292",
"$	c #728292",
"%	c #728191",
"&	c #718191",
"*	c #718091",
"=	c #797789",
"-	c #A75160",
";	c #D03E4A",
">	c #DF3A45",
",	c #D03F4B",
"'	c #A65160",
")	c #708090",
"!	c #926171",
"~	c #DE3B46",
"{	c #F04D54",
"]	c #F25056",
"^	c #DD3B46",
"/	c #916271",
"(	c #70808F",
"_	c #926170",
":	c #E8414A",
"<	c #E7414A",
"[	c #916270",
"}	c #6F7F8F",
"|	c #777787",
"1	c #DE3C46",
"2	c #6E7E8E",
"3	c #A5505E",
"4	c #F04E54",
"5	c #6D7E8D",
"6	c #D03E49",
"7	c #CF3F4A",
"8	c #6C7D8C",
"9	c #DF3B46",
"0	c #DE3B45",
"a	c #6C7C8B",
"b	c #6B7B8A",
"c	c #6A7B89",
"d	c #A34F5C",
"e	c #A3505E",
"f	c #697A88",
"g	c #717281",
"h	c #DD3B45",
"i	c #DD3C45",
"j	c #717381",
"k	c #687987",
"l	c #8C5D6B",
"m	c #8B5E6B",
"n	c #677887",
"o	c #70717F",
"p	c #A24F5C",
"q	c #CE3E4A",
"r	c #A24F5D",
"s	c #6F7180",
"t	c #667887",
"u	c #667787",
"v	c #657786",
"w	c #647686",
"x	c #637686",
"y	c #637586",
"z	c #627586",
"A	c #617486",
"....................",
"++++++++++++++++++++",
"++++++++++++++++++++",
"@@@@@@@@@@@@@@@@@@@@",
"####################",
"$$$$$$$$$$$$$$$$$$$$",
"%%%%%%%%%%%%%%%%%%%%",
"&&&&&&&&&&&&&&&&&&&&",
"******=-;>>,'=******",
")))))!~{]]]]{^/)))))",
"((((_:]]]]]]]]<[((((",
"}}}|~]]]]]]]]]]1|}}}",
"2223{]]]]]]]]]]4'222",
"5556]]]]]]]]]]]]7555",
"8889]]]]]]]]]]]]0888",
"aaa0]]]]]]]]]]]]1aaa",
"bbb;]]]]]]]]]]]]7bbb",
"cccd{]]]]]]]]]]{eccc",
"fffgh]]]]]]]]]]ijfff",
"kkkkl<]]]]]]]]<mkkkk",
"kkkkkl~4]]]]{imkkkkk",
"nnnnnnopq00qrsnnnnnn",
"tttttttttttttttttttt",
"uuuuuuuuuuuuuuuuuuuu",
"vvvvvvvvvvvvvvvvvvvv",
"wwwwwwwwwwwwwwwwwwww",
"xxxxxxxxxxxxxxxxxxxx",
"yyyyyyyyyyyyyyyyyyyy",
"zzzzzzzzzzzzzzzzzzzz",
"AAAAAAAAAAAAAAAAAAAA"};
