/* XPM */
static char * close_prelight_xpm[] = {
"20 30 78 1",
" 	c None",
".	c #758494",
"+	c #748393",
"@	c #738293",
"#	c #738292",
"$	c #728292",
"%	c #728191",
"&	c #718191",
"*	c #718091",
"=	c #797789",
"-	c #A75160",
";	c #D03E4A",
">	c #DF3A45",
",	c #D03F4B",
"'	c #A65160",
")	c #708090",
"!	c #926171",
"~	c #DE3B46",
"{	c #F04D54",
"]	c #F25056",
"^	c #DD3B46",
"/	c #916271",
"(	c #70808F",
"_	c #926170",
":	c #E8414A",
"<	c #E7414A",
"[	c #916270",
"}	c #6F7F8F",
"|	c #777787",
"1	c #EB4E54",
"2	c #EF4F55",
"3	c #DE3C46",
"4	c #6E7E8E",
"5	c #A5505E",
"6	c #EC4E54",
"7	c #812B2E",
"8	c #8E2F33",
"9	c #E84D52",
"0	c #822B2E",
"a	c #F04E54",
"b	c #6D7E8D",
"c	c #D03E49",
"d	c #79282B",
"e	c #8D2F32",
"f	c #CF3F4A",
"g	c #6C7D8C",
"h	c #DF3B46",
"i	c #8C2E32",
"j	c #E74C52",
"k	c #DE3B45",
"l	c #6C7C8B",
"m	c #E64C52",
"n	c #6B7B8A",
"o	c #6A7B89",
"p	c #A34F5C",
"q	c #A3505E",
"r	c #697A88",
"s	c #717281",
"t	c #DD3B45",
"u	c #DD3C45",
"v	c #717381",
"w	c #687987",
"x	c #8C5D6B",
"y	c #8B5E6B",
"z	c #677887",
"A	c #70717F",
"B	c #A24F5C",
"C	c #CE3E4A",
"D	c #A24F5D",
"E	c #6F7180",
"F	c #667887",
"G	c #667787",
"H	c #657786",
"I	c #647686",
"J	c #637686",
"K	c #637586",
"L	c #627586",
"M	c #617486",
"....................",
"++++++++++++++++++++",
"++++++++++++++++++++",
"@@@@@@@@@@@@@@@@@@@@",
"####################",
"$$$$$$$$$$$$$$$$$$$$",
"%%%%%%%%%%%%%%%%%%%%",
"&&&&&&&&&&&&&&&&&&&&",
"******=-;>>,'=******",
")))))!~{]]]]{^/)))))",
"((((_:]]]]]]]]<[((((",
"}}}|~]]12]]21]]3|}}}",
"4445{]67899806]a'444",
"bbbc]]28deed82]]fbbb",
"gggh]]]98ddij]]]kggg",
"lllk]]]98ddim]]]3lll",
"nnn;]]28deed82]]fnnn",
"ooop{]60899806]{qooo",
"rrrst]]62]]26]]uvrrr",
"wwwwx<]]]]]]]]<ywwww",
"wwwwwx~a]]]]{uywwwww",
"zzzzzzABCkkCDEzzzzzz",
"FFFFFFFFFFFFFFFFFFFF",
"GGGGGGGGGGGGGGGGGGGG",
"HHHHHHHHHHHHHHHHHHHH",
"IIIIIIIIIIIIIIIIIIII",
"JJJJJJJJJJJJJJJJJJJJ",
"KKKKKKKKKKKKKKKKKKKK",
"LLLLLLLLLLLLLLLLLLLL",
"MMMMMMMMMMMMMMMMMMMM"};
