/* XPM */
static char * hide_active_xpm[] = {
"20 30 68 1",
" 	c None",
".	c #758494",
"+	c #748393",
"@	c #738293",
"#	c #738292",
"$	c #728292",
"%	c #728191",
"&	c #718191",
"*	c #718091",
"=	c #7A8285",
"-	c #AB924D",
";	c #D5A52C",
">	c #E6AD23",
",	c #E5AD23",
"'	c #D4A62D",
")	c #AA914D",
"!	c #708090",
"~	c #948A64",
"{	c #E5AE24",
"]	c #F8C334",
"^	c #FAC536",
"/	c #E4AE24",
"(	c #938A65",
"_	c #70808F",
":	c #948A63",
"<	c #EEB729",
"[	c #938A64",
"}	c #6F7F8F",
"|	c #788283",
"1	c #E5AF24",
"2	c #778184",
"3	c #6E7E8E",
"4	c #A9914B",
"5	c #F8C333",
"6	c #A8904D",
"7	c #6D7E8D",
"8	c #D5A52B",
"9	c #6C7D8C",
"0	c #E4AE23",
"a	c #6C7C8B",
"b	c #E5AE23",
"c	c #6B7B8A",
"d	c #D5A42B",
"e	c #6A7B89",
"f	c #A78F4A",
"g	c #F7C233",
"h	c #A58E4B",
"i	c #697A88",
"j	c #727D7D",
"k	c #717C7E",
"l	c #687987",
"m	c #8E855F",
"n	c #EEB628",
"o	c #8D855F",
"p	c #677887",
"q	c #707B7C",
"r	c #A58E4A",
"s	c #D4A42B",
"t	c #A48D4A",
"u	c #6F7A7D",
"v	c #667887",
"w	c #667787",
"x	c #657786",
"y	c #647686",
"z	c #637686",
"A	c #637586",
"B	c #627586",
"C	c #617486",
"....................",
"++++++++++++++++++++",
"++++++++++++++++++++",
"@@@@@@@@@@@@@@@@@@@@",
"####################",
"$$$$$$$$$$$$$$$$$$$$",
"%%%%%%%%%%%%%%%%%%%%",
"&&&&&&&&&&&&&&&&&&&&",
"******=-;>,')=******",
"!!!!!~{]^^^^]/(!!!!!",
"____:<^^^^^^^^<[____",
"}}}|{^^^^^^^^^^12}}}",
"3334]^^^^^^^^^^56333",
"7778^^^^^^^^^^^^;777",
"9991^^^^^^^^^^^^0999",
"aaab^^^^^^^^^^^^{aaa",
"cccd^^^^^^^^^^^^8ccc",
"eeef]^^^^^^^^^^gheee",
"iiij0^^^^^^^^^^/kiii",
"llllm<^^^^^^^^nollll",
"lllllm/5^^^^g/olllll",
"ppppppqrsbbstupppppp",
"vvvvvvvvvvvvvvvvvvvv",
"wwwwwwwwwwwwwwwwwwww",
"xxxxxxxxxxxxxxxxxxxx",
"yyyyyyyyyyyyyyyyyyyy",
"zzzzzzzzzzzzzzzzzzzz",
"AAAAAAAAAAAAAAAAAAAA",
"BBBBBBBBBBBBBBBBBBBB",
"CCCCCCCCCCCCCCCCCCCC"};
