/* XPM */
static char * maximize_prelight_xpm[] = {
"20 30 74 1",
" 	c None",
".	c #758494",
"+	c #748393",
"@	c #738293",
"#	c #738292",
"$	c #728292",
"%	c #728191",
"&	c #718191",
"*	c #718091",
"=	c #698587",
"-	c #40A355",
";	c #29C539",
">	c #25D234",
",	c #25D233",
"'	c #29C53A",
")	c #41A354",
"!	c #708090",
"~	c #509569",
"{	c #27D133",
"]	c #36E746",
"^	c #39EA49",
"/	c #26D133",
"(	c #50966A",
"_	c #70808F",
":	c #509568",
"<	c #2CDB3A",
"[	c #2BDB3A",
"}	c #509669",
"|	c #6F7F8F",
"1	c #678585",
"2	c #26D134",
"3	c #678485",
"4	c #6E7E8E",
"5	c #3EA353",
"6	c #34D643",
"7	c #1F7F28",
"8	c #1C7524",
"9	c #269D31",
"0	c #40A254",
"a	c #6D7E8D",
"b	c #2AC339",
"c	c #6C7D8C",
"d	c #34D542",
"e	c #35D843",
"f	c #1F8028",
"g	c #25D133",
"h	c #6C7C8B",
"i	c #6B7B8A",
"j	c #2AC338",
"k	c #6A7B89",
"l	c #3DA151",
"m	c #3EA152",
"n	c #697A88",
"o	c #61807F",
"p	c #26CF34",
"q	c #617F7F",
"r	c #687987",
"s	c #4B9164",
"t	c #2BDB39",
"u	c #4C9065",
"v	c #677887",
"w	c #607E7D",
"x	c #3C9F50",
"y	c #29C339",
"z	c #3DA051",
"A	c #5F7D7E",
"B	c #667887",
"C	c #667787",
"D	c #657786",
"E	c #647686",
"F	c #637686",
"G	c #637586",
"H	c #627586",
"I	c #617486",
"....................",
"++++++++++++++++++++",
"++++++++++++++++++++",
"@@@@@@@@@@@@@@@@@@@@",
"####################",
"$$$$$$$$$$$$$$$$$$$$",
"%%%%%%%%%%%%%%%%%%%%",
"&&&&&&&&&&&&&&&&&&&&",
"******=-;>,')=******",
"!!!!!~{]^^^^]/(!!!!!",
"____:<^^^^^^^^[}____",
"|||1{^^^^^^^^^^23|||",
"4445]^^^67889^^]0444",
"aaa;^^^6^6788^^^baaa",
"ccc2^^^7d^ef8^^^gccc",
"hhh/^^^87d^ef^^^2hhh",
"iii;^^^8876^6^^^jiii",
"kkkl]^^98876^^^]mkkk",
"nnnog^^^^^^^^^^pqnnn",
"rrrrs[^^^^^^^^turrrr",
"rrrrrs2]^^^^]purrrrr",
"vvvvvvwxyggyzAvvvvvv",
"BBBBBBBBBBBBBBBBBBBB",
"CCCCCCCCCCCCCCCCCCCC",
"DDDDDDDDDDDDDDDDDDDD",
"EEEEEEEEEEEEEEEEEEEE",
"FFFFFFFFFFFFFFFFFFFF",
"GGGGGGGGGGGGGGGGGGGG",
"HHHHHHHHHHHHHHHHHHHH",
"IIIIIIIIIIIIIIIIIIII"};
