/* XPM */
static char * maximize_active_xpm[] = {
"20 30 67 1",
" 	c None",
".	c #758494",
"+	c #748393",
"@	c #738293",
"#	c #738292",
"$	c #728292",
"%	c #728191",
"&	c #718191",
"*	c #718091",
"=	c #698587",
"-	c #40A355",
";	c #29C539",
">	c #25D234",
",	c #25D233",
"'	c #29C53A",
")	c #41A354",
"!	c #708090",
"~	c #509569",
"{	c #27D133",
"]	c #36E746",
"^	c #39EA49",
"/	c #26D133",
"(	c #50966A",
"_	c #70808F",
":	c #509568",
"<	c #2CDB3A",
"[	c #2BDB3A",
"}	c #509669",
"|	c #6F7F8F",
"1	c #678585",
"2	c #26D134",
"3	c #678485",
"4	c #6E7E8E",
"5	c #3EA353",
"6	c #40A254",
"7	c #6D7E8D",
"8	c #2AC339",
"9	c #6C7D8C",
"0	c #25D133",
"a	c #6C7C8B",
"b	c #6B7B8A",
"c	c #2AC338",
"d	c #6A7B89",
"e	c #3DA151",
"f	c #3EA152",
"g	c #697A88",
"h	c #61807F",
"i	c #26CF34",
"j	c #617F7F",
"k	c #687987",
"l	c #4B9164",
"m	c #2BDB39",
"n	c #4C9065",
"o	c #677887",
"p	c #607E7D",
"q	c #3C9F50",
"r	c #29C339",
"s	c #3DA051",
"t	c #5F7D7E",
"u	c #667887",
"v	c #667787",
"w	c #657786",
"x	c #647686",
"y	c #637686",
"z	c #637586",
"A	c #627586",
"B	c #617486",
"....................",
"++++++++++++++++++++",
"++++++++++++++++++++",
"@@@@@@@@@@@@@@@@@@@@",
"####################",
"$$$$$$$$$$$$$$$$$$$$",
"%%%%%%%%%%%%%%%%%%%%",
"&&&&&&&&&&&&&&&&&&&&",
"******=-;>,')=******",
"!!!!!~{]^^^^]/(!!!!!",
"____:<^^^^^^^^[}____",
"|||1{^^^^^^^^^^23|||",
"4445]^^^^^^^^^^]6444",
"777;^^^^^^^^^^^^8777",
"9992^^^^^^^^^^^^0999",
"aaa/^^^^^^^^^^^^2aaa",
"bbb;^^^^^^^^^^^^cbbb",
"ddde]^^^^^^^^^^]fddd",
"gggh0^^^^^^^^^^ijggg",
"kkkkl[^^^^^^^^mnkkkk",
"kkkkkl2]^^^^]inkkkkk",
"oooooopqr00rstoooooo",
"uuuuuuuuuuuuuuuuuuuu",
"vvvvvvvvvvvvvvvvvvvv",
"wwwwwwwwwwwwwwwwwwww",
"xxxxxxxxxxxxxxxxxxxx",
"yyyyyyyyyyyyyyyyyyyy",
"zzzzzzzzzzzzzzzzzzzz",
"AAAAAAAAAAAAAAAAAAAA",
"BBBBBBBBBBBBBBBBBBBB"};
