/* XPM */
static char * top_left_inactive_xpm[] = {
"2 30 29 1",
" 	c None",
".	c #758494",
"+	c #748393",
"@	c #738293",
"#	c #738292",
"$	c #728292",
"%	c #728191",
"&	c #718191",
"*	c #718091",
"=	c #708090",
"-	c #70808F",
";	c #6F7F8F",
">	c #6E7E8E",
",	c #6D7E8D",
"'	c #6C7D8C",
")	c #6C7C8B",
"!	c #6B7B8A",
"~	c #6A7B89",
"{	c #697A88",
"]	c #687987",
"^	c #677887",
"/	c #667887",
"(	c #667787",
"_	c #657786",
":	c #647686",
"<	c #637686",
"[	c #637586",
"}	c #627586",
"|	c #617486",
" .",
"++",
"++",
"@@",
"##",
"$$",
"%%",
"&&",
"**",
"==",
"--",
";;",
">>",
",,",
"''",
"))",
"!!",
"~~",
"{{",
"]]",
"]]",
"^^",
"//",
"((",
"__",
"::",
"<<",
"[[",
"}}",
"||"};
