/* XPM */
static char * title_2_inactive_xpm[] = {
"5 30 2 1",
" 	c None",
".	c #A52A2A",
".....",
".....",
".....",
".....",
".....",
".....",
".....",
".....",
".....",
".....",
".....",
".....",
".....",
".....",
".....",
".....",
".....",
".....",
".....",
".....",
".....",
".....",
".....",
".....",
".....",
".....",
".....",
".....",
".....",
"....."};
