/* XPM */
static char * close_prelight_xpm[] = {
"20 30 37 1",
" 	c None",
".	c #9400D3",
"+	c #9B05CB",
"@	c #BB1C9A",
"#	c #D73165",
"$	c #E1384C",
"%	c #D73166",
"&	c #AE14B2",
"*	c #E0394D",
"=	c #F04D54",
"-	c #F25056",
";	c #DF394D",
">	c #AD14B2",
",	c #E8414A",
"'	c #E7414A",
")	c #EB4E54",
"!	c #EF4F55",
"~	c #E0394E",
"{	c #EC4E54",
"]	c #812B2E",
"^	c #8E2F33",
"/	c #E84D52",
"(	c #822B2E",
"_	c #F04E54",
":	c #BC1D9B",
"<	c #79282B",
"[	c #8D2F32",
"}	c #D73266",
"|	c #E1394E",
"1	c #8C2E32",
"2	c #E74C52",
"3	c #E64C52",
"4	c #D83166",
"5	c #BC1D9C",
"6	c #9B05CC",
"7	c #AC14B3",
"8	c #D73167",
"....................",
"....................",
"....................",
"....................",
"....................",
"....................",
"....................",
"....................",
"......+@#$$%@+......",
".....&*=----=;>.....",
"....&,--------'>....",
"...+*--)!--!)--~+...",
"...@=-{]^//^({-_:...",
"...#--!^<[[<^!--}...",
"...|---/^<<12---*...",
"...*---/^<<13---~...",
"...4--!^<[[<^!--}...",
"...@=-{(^//^({-=5...",
"...+;--{!--!{--~6...",
"....>'--------'7....",
".....>~_----=~7.....",
"......+:8**856......",
"....................",
"....................",
"....................",
"....................",
"....................",
"....................",
"....................",
"...................."};
