/* XPM */
static char * close_inactive_xpm[] = {
"20 30 23 1",
" 	c None",
".	c #9400D3",
"+	c #983AD1",
"@	c #AA8CC6",
"#	c #BAB3C2",
"$	c #BFBEC0",
"%	c #C0BFC1",
"&	c #B9B2C1",
"*	c #AB8DC7",
"=	c #A372CB",
"-	c #BFBEC1",
";	c #C7C7C7",
">	c #C8C8C8",
",	c #C0BFC2",
"'	c #A271CB",
")	c #C3C3C3",
"!	c #C0BEC2",
"~	c #9737D1",
"{	c #AB8CC7",
"]	c #AA8CC7",
"^	c #9839D2",
"/	c #C2C2C2",
"(	c #A270CC",
"....................",
"....................",
"....................",
"....................",
"....................",
"....................",
"....................",
"....................",
"......+@#$%&*+......",
".....=-;>>>>;,'.....",
"....=)>>>>>>>>)'....",
"...+->>>>>>>>>>!~...",
"...@;>>>>>>>>>>;{...",
"...#>>>>>>>>>>>>#...",
"...->>>>>>>>>>>>-...",
"...->>>>>>>>>>>>!...",
"...&>>>>>>>>>>>>#...",
"...*;>>>>>>>>>>;]...",
"...+,>>>>>>>>>>!^...",
"....')>>>>>>>>/(....",
".....'!;>>>>;!(.....",
"......~{#,,#]^......",
"....................",
"....................",
"....................",
"....................",
"....................",
"....................",
"....................",
"...................."};
