/* XPM */
static char * hide_pressed_xpm[] = {
"20 30 27 1",
" 	c None",
".	c #9400D3",
"+	c #9C31CB",
"@	c #BC7599",
"#	c #CF9064",
"$	c #D89B33",
"%	c #CF8F65",
"&	c #BC7499",
"*	c #B05FB0",
"=	c #D79A37",
"-	c #DA9E10",
";	c #B05EB1",
">	c #DA9E15",
",	c #D79A39",
"'	c #9B2FCB",
")	c #BC759A",
"!	c #CF9063",
"~	c #D79B35",
"{	c #85610A",
"]	c #6D4F08",
"^	c #86610A",
"/	c #87620A",
"(	c #BB739A",
"_	c #D79A3B",
":	c #9B2CCC",
"<	c #AF5EB2",
"[	c #CF8F66",
"....................",
"....................",
"....................",
"....................",
"....................",
"....................",
"....................",
"....................",
"......+@#$$%&+......",
".....*=------=;.....",
"....*>-------->;....",
"...+=----------,'...",
"...@------------)...",
"...!------------%...",
"...~--{]]]]]]{--=...",
"...=--^]]]]]]/--,...",
"...#------------%...",
"...&------------(...",
"...+=----------_:...",
"....;>--------><....",
".....;,------_<.....",
"......')[~~[(:......",
"....................",
"....................",
"....................",
"....................",
"....................",
"....................",
"....................",
"...................."};
