/* XPM */
static char * hide_pressed_xpm[] = {
"20 30 67 1",
" 	c None",
".	c #E686B3",
"+	c #E585B2",
"@	c #E484B1",
"#	c #E483B0",
"$	c #E382AF",
"%	c #E381AF",
"&	c #E280AE",
"*	c #E17FAD",
"=	c #E17EAC",
"-	c #E0819E",
";	c #DD8E5A",
">	c #DB972D",
",	c #DA9C16",
"'	c #DD8E5B",
")	c #E07DAB",
"!	c #DE8877",
"~	c #DA9C17",
"{	c #DA9E10",
"]	c #DE8777",
"^	c #DA9D10",
"/	c #DF7CAA",
"(	c #DE7F9C",
"_	c #DA9C18",
":	c #DE7E9C",
"<	c #DF7BA9",
"[	c #DC8D59",
"}	c #DC8D5B",
"|	c #DE7BA9",
"1	c #DA972C",
"2	c #DA972D",
"3	c #DE7AA8",
"4	c #85610A",
"5	c #6D4F08",
"6	c #DD79A8",
"7	c #86610A",
"8	c #87620A",
"9	c #DA9B18",
"0	c #DD78A7",
"a	c #DA962C",
"b	c #DA962D",
"c	c #DC78A6",
"d	c #DA8B58",
"e	c #DA8B5A",
"f	c #DC77A6",
"g	c #DC7A98",
"h	c #DB799A",
"i	c #DB76A5",
"j	c #DB8373",
"k	c #DA8375",
"l	c #DB75A4",
"m	c #DB8272",
"n	c #DA8274",
"o	c #DA74A4",
"p	c #DA7797",
"q	c #DA8958",
"r	c #DA952D",
"s	c #D98959",
"t	c #D97698",
"u	c #D973A3",
"v	c #D872A2",
"w	c #D771A1",
"x	c #D770A0",
"y	c #D66F9F",
"z	c #D56E9E",
"A	c #D46D9D",
"B	c #D36C9C",
"....................",
"++++++++++++++++++++",
"@@@@@@@@@@@@@@@@@@@@",
"####################",
"$$$$$$$$$$$$$$$$$$$$",
"%%%%%%%%%%%%%%%%%%%%",
"&&&&&&&&&&&&&&&&&&&&",
"********************",
"======-;>,,>'-======",
")))))!~{{{{{{~])))))",
"))))!^{{{{{{{{^]))))",
"///(~{{{{{{{{{{_:///",
"<<<[{{{{{{{{{{{{}<<<",
"|||1{{{{{{{{{{{{2|||",
"333~{{45555554{{~333",
"666~{{75555558{{9666",
"000a{{{{{{{{{{{{b000",
"cccd{{{{{{{{{{{{eccc",
"fffg~{{{{{{{{{{9hfff",
"iiiij^{{{{{{{{^kiiii",
"lllllm9{{{{{{9nlllll",
"oooooopqr,,rstoooooo",
"uuuuuuuuuuuuuuuuuuuu",
"vvvvvvvvvvvvvvvvvvvv",
"wwwwwwwwwwwwwwwwwwww",
"xxxxxxxxxxxxxxxxxxxx",
"yyyyyyyyyyyyyyyyyyyy",
"zzzzzzzzzzzzzzzzzzzz",
"AAAAAAAAAAAAAAAAAAAA",
"BBBBBBBBBBBBBBBBBBBB"};
