/* XPM */
static char * top_right_active_xpm[] = {
"2 30 30 1",
" 	c None",
".	c #E686B3",
"+	c #E585B2",
"@	c #E484B1",
"#	c #E483B0",
"$	c #E382AF",
"%	c #E381AF",
"&	c #E280AE",
"*	c #E17FAD",
"=	c #E17EAC",
"-	c #E07DAB",
";	c #DF7CAA",
">	c #DF7BA9",
",	c #DE7BA9",
"'	c #DE7AA8",
")	c #DD79A8",
"!	c #DD78A7",
"~	c #DC78A6",
"{	c #DC77A6",
"]	c #DB76A5",
"^	c #DB75A4",
"/	c #DA74A4",
"(	c #D973A3",
"_	c #D872A2",
":	c #D771A1",
"<	c #D770A0",
"[	c #D66F9F",
"}	c #D56E9E",
"|	c #D46D9D",
"1	c #D36C9C",
". ",
"++",
"@@",
"##",
"$$",
"%%",
"&&",
"**",
"==",
"--",
"--",
";;",
">>",
",,",
"''",
"))",
"!!",
"~~",
"{{",
"]]",
"^^",
"//",
"((",
"__",
"::",
"<<",
"[[",
"}}",
"||",
"11"};
