/* XPM */
static char * top_right_active_xpm[] = {
"2 30 2 1",
" 	c None",
".	c #3F51B5",
". ",
"..",
"..",
"..",
"..",
"..",
"..",
"..",
"..",
"..",
"..",
"..",
"..",
"..",
"..",
"..",
"..",
"..",
"..",
"..",
"..",
"..",
"..",
"..",
"..",
"..",
"..",
"..",
"..",
".."};
