/* XPM */
static char * maximize_prelight_xpm[] = {
"20 30 33 1",
" 	c None",
".	c #3367D6",
"+	c #3173CE",
"@	c #26A199",
"#	c #22C65D",
"$	c #24D23D",
"%	c #24D23C",
"&	c #22C65E",
"*	c #27A19A",
"=	c #2B8EB3",
"-	c #25D23E",
";	c #36E746",
">	c #39EA49",
",	c #24D23E",
"'	c #2CDB3A",
")	c #2BDB3A",
"!	c #25D240",
"~	c #3172CE",
"{	c #34D643",
"]	c #1F7F28",
"^	c #1C7524",
"/	c #269D31",
"(	c #27A19B",
"_	c #23C55F",
":	c #25D23F",
"<	c #34D542",
"[	c #35D843",
"}	c #1F8028",
"|	c #22C75E",
"1	c #25D041",
"2	c #3171CE",
"3	c #2BDB39",
"4	c #2B8DB4",
"....................",
"....................",
"....................",
"....................",
"....................",
"....................",
"....................",
"....................",
"......+@#$%&*+......",
".....=-;>>>>;,=.....",
"....='>>>>>>>>)=....",
"...+->>>>>>>>>>!~...",
"...@;>>>{]^^/>>;(...",
"...#>>>{>{]^^>>>_...",
"...:>>>]<>[}^>>>,...",
"...->>>^]<>[}>>>!...",
"...|>>>^^]{>{>>>_...",
"...*;>>/^^]{>>>;(...",
"...+,>>>>>>>>>>12...",
"....=)>>>>>>>>34....",
".....=!;>>>>;14.....",
"......~(_,,_(2......",
"....................",
"....................",
"....................",
"....................",
"....................",
"....................",
"....................",
"...................."};
