/* XPM */
static char * close_pressed_xpm[] = {
"20 30 33 1",
" 	c None",
".	c #1E90FF",
"+	c #498BF6",
"@	c #A06ABC",
"#	c #C24A80",
"$	c #D1324F",
"%	c #C24B81",
"&	c #9F6BBC",
"*	c #8479D7",
"=	c #D03352",
"-	c #D52735",
";	c #837AD7",
">	c #D52838",
",	c #CF2634",
"'	c #D22734",
")	c #D03454",
"!	c #4B8BF6",
"~	c #D02634",
"{	c #72151C",
"]	c #7D171F",
"^	c #CC2533",
"/	c #A06BBD",
"(	c #C34A7F",
"_	c #6A131A",
":	c #7C171F",
"<	c #D13251",
"[	c #7B161F",
"}	c #CB2533",
"|	c #CA2532",
"1	c #9E6CBE",
"2	c #CF3556",
"3	c #817AD8",
"4	c #C24B82",
"....................",
"....................",
"....................",
"....................",
"....................",
"....................",
"....................",
"....................",
"......+@#$$%&+......",
".....*=------=;.....",
"....*>-------->;....",
"...+=--,'--',--)!...",
"...@--~{]^^]{~--/...",
"...(--']_::_]'--%...",
"...<---^]__[}---=...",
"...=---^]__[|---)...",
"...#--']_::_]'--%...",
"...&--~{]^^]{~--1...",
"...+=--~'--'~--2+...",
"....;>-------->3....",
".....;)------23.....",
"......!/4<<41+......",
"....................",
"....................",
"....................",
"....................",
"....................",
"....................",
"....................",
"...................."};
