/* XPM */
static char * hide_active_xpm[] = {
"20 30 59 1",
" 	c None",
".	c #D73E3E",
"+	c #D63D3D",
"@	c #D53C3C",
"#	c #D43B3B",
"$	c #D33A3A",
"%	c #D13838",
"&	c #D03737",
"*	c #CF3636",
"=	c #CE3535",
"-	c #CF3E31",
";	c #D66F22",
">	c #E29B20",
",	c #E8AC21",
"'	c #E7AC21",
")	c #E19C21",
"!	c #D66E22",
"~	c #CD3434",
"{	c #D15827",
"]	c #F8C334",
"^	c #FAC536",
"/	c #D15727",
"(	c #CC3333",
"_	c #D15726",
":	c #EEB729",
"<	c #CB3232",
"[	c #CC3B2E",
"}	c #E8AD21",
"|	c #CC3A2E",
"1	c #D46E21",
"2	c #F8C333",
"3	c #D46C21",
"4	c #CA3131",
"5	c #E19B1F",
"6	c #E29B1F",
"7	c #E8AD22",
"8	c #C93030",
"9	c #E7AB21",
"0	c #E29A1F",
"a	c #C82F2F",
"b	c #D36B20",
"c	c #F7C233",
"d	c #D26A20",
"e	c #C9382B",
"f	c #C9372C",
"g	c #C72E2E",
"h	c #CD5323",
"i	c #EEB628",
"j	c #C62D2D",
"k	c #C7362A",
"l	c #D26A1F",
"m	c #E19A1F",
"n	c #D1691F",
"o	c #C7352A",
"p	c #C52D2D",
"q	c #C52C2C",
"r	c #C42B2B",
"s	c #C32B2B",
"t	c #C32A2A",
"....................",
"++++++++++++++++++++",
"@@@@@@@@@@@@@@@@@@@@",
"####################",
"$$$$$$$$$$$$$$$$$$$$",
"%%%%%%%%%%%%%%%%%%%%",
"&&&&&&&&&&&&&&&&&&&&",
"********************",
"======-;>,')!-======",
"~~~~~{,]^^^^]'/~~~~~",
"((((_:^^^^^^^^:/((((",
"<<<[,^^^^^^^^^^}|<<<",
"<<<1]^^^^^^^^^^23<<<",
"4445^^^^^^^^^^^^6444",
"4447^^^^^^^^^^^^'444",
"888,^^^^^^^^^^^^9888",
"8880^^^^^^^^^^^^0888",
"aaab]^^^^^^^^^^cdaaa",
"aaae'^^^^^^^^^^9faaa",
"ggggh:^^^^^^^^ihgggg",
"gggggh92^^^^c9hggggg",
"jjjjjjklm,,mnojjjjjj",
"jjjjjjjjjjjjjjjjjjjj",
"pppppppppppppppppppp",
"qqqqqqqqqqqqqqqqqqqq",
"qqqqqqqqqqqqqqqqqqqq",
"rrrrrrrrrrrrrrrrrrrr",
"rrrrrrrrrrrrrrrrrrrr",
"ssssssssssssssssssss",
"tttttttttttttttttttt"};
