/* XPM */
static char * maximize_prelight_xpm[] = {
"20 30 68 1",
" 	c None",
".	c #D73E3E",
"+	c #D63D3D",
"@	c #D53C3C",
"#	c #D43B3B",
"$	c #D33A3A",
"%	c #D13838",
"&	c #D03737",
"*	c #CF3636",
"=	c #CE3535",
"-	c #BE4133",
";	c #6B812A",
">	c #35BB2E",
",	c #28D032",
"'	c #28D031",
")	c #36BB2E",
"!	c #6C8029",
"~	c #CD3434",
"{	c #8D632C",
"]	c #29CF31",
"^	c #36E746",
"/	c #39EA49",
"(	c #28CF31",
"_	c #8E632C",
":	c #CC3333",
"<	c #8D622B",
"[	c #2CDB3A",
"}	c #2BDB3A",
"|	c #CB3232",
"1	c #BB3E30",
"2	c #29CE32",
"3	c #BC3D2F",
"4	c #697F29",
"5	c #34D643",
"6	c #1F7F28",
"7	c #1C7524",
"8	c #269D31",
"9	c #6C7E28",
"0	c #CA3131",
"a	c #35BB2D",
"b	c #37B92C",
"c	c #34D542",
"d	c #35D843",
"e	c #1F8028",
"f	c #C93030",
"g	c #29CF30",
"h	c #29CE31",
"i	c #C82F2F",
"j	c #697D27",
"k	c #6B7D27",
"l	c #B83B2D",
"m	c #28CF30",
"n	c #29CD30",
"o	c #B93A2D",
"p	c #C72E2E",
"q	c #8A5F28",
"r	c #2BDB39",
"s	c #8C5E29",
"t	c #C62D2D",
"u	c #B7392B",
"v	c #6A7C26",
"w	c #36B82D",
"x	c #B7382B",
"y	c #C52D2D",
"z	c #C52C2C",
"A	c #C42B2B",
"B	c #C32B2B",
"C	c #C32A2A",
"....................",
"++++++++++++++++++++",
"@@@@@@@@@@@@@@@@@@@@",
"####################",
"$$$$$$$$$$$$$$$$$$$$",
"%%%%%%%%%%%%%%%%%%%%",
"&&&&&&&&&&&&&&&&&&&&",
"********************",
"======-;>,')!-======",
"~~~~~{]^////^(_~~~~~",
"::::<[////////}_::::",
"|||1]//////////23|||",
"|||4^///56778//^9|||",
"000a///5/5677///b000",
"000]///6c/de7///(000",
"fffg///76c/de///hfff",
"fffa///7765/5///bfff",
"iiij^//87765///^kiii",
"iiilm//////////noiii",
"ppppq}////////rspppp",
"pppppqh^////^nsppppp",
"ttttttuvwmmwvxtttttt",
"tttttttttttttttttttt",
"yyyyyyyyyyyyyyyyyyyy",
"zzzzzzzzzzzzzzzzzzzz",
"zzzzzzzzzzzzzzzzzzzz",
"AAAAAAAAAAAAAAAAAAAA",
"AAAAAAAAAAAAAAAAAAAA",
"BBBBBBBBBBBBBBBBBBBB",
"CCCCCCCCCCCCCCCCCCCC"};
