/* XPM */
static char * title_5_active_xpm[] = {
"5 30 23 1",
" 	c None",
".	c #D73E3E",
"+	c #D63D3D",
"@	c #D53C3C",
"#	c #D43B3B",
"$	c #D33A3A",
"%	c #D13838",
"&	c #D03737",
"*	c #CF3636",
"=	c #CE3535",
"-	c #CD3434",
";	c #CC3333",
">	c #CB3232",
",	c #CA3131",
"'	c #C93030",
")	c #C82F2F",
"!	c #C72E2E",
"~	c #C62D2D",
"{	c #C52D2D",
"]	c #C52C2C",
"^	c #C42B2B",
"/	c #C32B2B",
"(	c #C32A2A",
".....",
"+++++",
"@@@@@",
"#####",
"$$$$$",
"%%%%%",
"&&&&&",
"*****",
"=====",
"-----",
";;;;;",
">>>>>",
">>>>>",
",,,,,",
",,,,,",
"'''''",
"'''''",
")))))",
")))))",
"!!!!!",
"!!!!!",
"~~~~~",
"~~~~~",
"{{{{{",
"]]]]]",
"]]]]]",
"^^^^^",
"^^^^^",
"/////",
"((((("};
